<?xml version="1.0" standalone="no"?>
<!DOCTYPE svg PUBLIC "-//W3C//DTD SVG 1.1//EN" "http://www.w3.org/Graphics/SVG/1.1/DTD/svg11.dtd" >
<svg xmlns="http://www.w3.org/2000/svg">
<metadata></metadata>
<defs>
<font id="league_gothicregular" horiz-adv-x="686" >
<font-face units-per-em="2048" ascent="1505" descent="-543" />
<missing-glyph horiz-adv-x="315" />
<glyph horiz-adv-x="2048" />
<glyph horiz-adv-x="2048" />
<glyph unicode="&#xd;" horiz-adv-x="2048" />
<glyph unicode=" "  horiz-adv-x="315" />
<glyph unicode="&#x09;" horiz-adv-x="315" />
<glyph unicode="&#xa0;" horiz-adv-x="315" />
<glyph unicode="!" horiz-adv-x="387" d="M74 1505l55 -1099h129l55 1099h-239zM86 0h215v227h-215v-227z" />
<glyph unicode="&#x22;" horiz-adv-x="532" d="M78 1505l31 -551h153l31 551h-215zM332 1505l30 -551h154l31 551h-215z" />
<glyph unicode="#" horiz-adv-x="1232" d="M49 438h199l-60 -438h197l59 438h261l-60 -438h197l59 438h191l26 195h-190l37 258h192l27 194h-193l58 420h-197l-57 -420h-260l57 420h-197l-57 -420h-197l-26 -194h196l-37 -258h-198zM471 633l37 258h260l-37 -258h-260z" />
<glyph unicode="$" horiz-adv-x="692" d="M37 358q3 -134 61 -227q64 -103 189 -125v-221h123v217q127 14 192 127q53 90 53 242q0 65 -18 127q-36 106 -119 225q-9 13 -32.5 47t-36.5 51q-78 102 -115 166q-58 97 -58 172q0 57 21 111q20 51 63 51q44 1 65 -33t28 -92l192 25q-14 118 -63 186q-62 85 -172 96v125 h-123v-131q-115 -25 -170 -131q-45 -86 -45 -211q0 -66 20 -125q30 -100 117 -227q52 -77 129 -176q42 -62 55 -84q58 -100 58 -174q0 -77 -21 -127q-23 -58 -72 -58q-63 0 -96 58q-30 49 -33 129z" />
<glyph unicode="%" horiz-adv-x="1001" d="M55 911q0 -48 19 -88q43 -88 141 -88q60 0 90 27q65 56 68 149v437q-3 48 -21 86q-21 40 -52 64t-85 24q-62 0 -92 -27q-68 -59 -68 -147v-437zM158 0h137l547 1505h-131zM178 911v437q-2 10 2 26q12 29 35 29q16 0 21 -8q14 -21 14 -47v-437q0 -55 -35 -55q-42 0 -37 55 zM631 158q0 -50 18 -88q46 -86 142 -86q61 0 90 26q64 55 67 148v436q-3 50 -20 88q-21 40 -52 64t-85 24q-63 0 -93 -27q-67 -58 -67 -149v-436zM754 158v436q-2 11 2 27q4 9 7 14t10 9.5t18 4.5q15 0 20 -8q14 -21 14 -47v-436q0 -13 -4 -29q-12 -29 -30 -29q-16 0 -23 11 q-16 20 -14 47z" />
<glyph unicode="&#x26;" horiz-adv-x="854" d="M49 315q0 -132 86 -231q87 -100 217 -100t252 139q38 -41 68 -62q74 -55 112 -69q19 -8 29 -8v235q-8 3 -35 23q-19 12 -57 53q45 91 70 207q17 78 22 151l-176 33q-26 -152 -47 -211q-63 93 -148 285q94 124 148 227q97 181 28 371q-62 164 -235 164q-105 0 -160 -52 q-107 -98 -110 -276q0 -226 106 -442q-40 -61 -63.5 -101.5t-51.5 -99t-41.5 -117t-13.5 -119.5zM263 320q-5 64 5 104q15 88 45 133q65 -120 174 -295q-24 -30 -38.5 -45t-37.5 -28t-49 -13q-42 0 -69 43q-25 37 -30 101zM311 1270q16 76 72 76q33 0 49 -23q32 -43 29 -123 q0 -95 -101 -252q-32 79 -41 125q-26 111 -8 197z" />
<glyph unicode="'" horiz-adv-x="309" d="M57 1505l31 -551h154l30 551h-215z" />
<glyph unicode="(" horiz-adv-x="561" d="M66 645q0 -198 45 -362q84 -326 247 -580l162 84q-72 103 -129 238q-129 301 -129 620q0 192 41 350q79 311 217 510l-162 84q-81 -127 -147 -280q-145 -337 -145 -664z" />
<glyph unicode=")" horiz-adv-x="561" d="M41 -213l162 -84q79 125 145 279q148 344 148 663q0 198 -45 365q-84 313 -248 579l-162 -84q72 -110 129 -239q129 -315 129 -621q0 -190 -41 -348q-83 -316 -217 -510z" />
<glyph unicode="*" horiz-adv-x="677" d="M74 1251l172 -34l-115 -138l131 -80l76 152l78 -152l131 80l-115 138l172 34l-43 148l-164 -70l19 176h-154l19 -176l-164 70z" />
<glyph unicode="+" horiz-adv-x="1060" d="M74 649h370v-346h172v346h371v172h-371v346h-172v-346h-370v-172z" />
<glyph unicode="," horiz-adv-x="309" d="M45 0h72l-72 -266h102l113 266v227h-215v-227z" />
<glyph unicode="-" horiz-adv-x="444" d="M74 455h297v194h-297v-194z" />
<glyph unicode="." horiz-adv-x="321" d="M53 0h215v227h-215v-227z" />
<glyph unicode="/" horiz-adv-x="720" d="M8 -147h168l537 1652h-162z" />
<glyph unicode="0" horiz-adv-x="724" d="M68 309q3 -97 36 -164q30 -67 86 -110q63 -51 172 -51q107 0 170 51q61 46 89 110q33 67 36 164v887q-3 95 -36 162q-29 67 -89 112q-69 52 -170 52q-103 0 -172 -52q-55 -42 -86 -112q-33 -67 -36 -162v-887zM289 309v887q0 34 8 55q17 56 65 56q29 0 46 -17 q28 -35 28 -94v-887q0 -36 -8 -55q-14 -55 -66 -55q-27 0 -43 16q-30 35 -30 94z" />
<glyph unicode="1" horiz-adv-x="475" d="M25 1180h147v-1180h221v1505h-133q-17 -38 -49 -78q-81 -86 -186 -106v-141z" />
<glyph unicode="2" horiz-adv-x="731" d="M55 0h600v219h-350q129 217 217 422q129 305 129 506q0 174 -61 266q-74 109 -234 109q-166 0 -237 -119q-58 -97 -58 -270v-105h222v105q0 80 14 129q17 55 59 55q44 0 62 -62q12 -42 12 -122q-3 -120 -63 -299q-51 -151 -127 -297q-88 -170 -185 -318v-219z" />
<glyph unicode="3" d="M45 1071h217q0 148 14 205q10 51 52 51q48 0 61 -65q8 -39 8 -129v-121q0 -52 -14 -80q-13 -32 -49 -47.5t-105 -20.5v-184h19q65 -3 108 -27q62 -41 62 -155q-2 -39 -2 -129t-8 -127q-14 -64 -62 -64q-21 0 -34.5 11.5t-22.5 41.5q-19 62 -19 203h-217q0 -190 43 -289 q68 -161 250 -161q71 0 119 26q87 48 129 160q33 96 37 172q2 23 2 43q0 149 -27 252.5t-100 161.5l2 2q54 54 80 145t26 252q0 96 -39 176q-72 148 -247 148q-178 0 -244 -160q-39 -97 -39 -291z" />
<glyph unicode="4" horiz-adv-x="684" d="M25 328h342v-328h202v328h103v194h-103v983h-221l-323 -983v-194zM213 522l129 471l12 45h13v-516h-154z" />
<glyph unicode="5" horiz-adv-x="704" d="M74 438q0 -204 43 -301q66 -153 245 -153q177 0 246 145q43 88 43 248v336q0 93 -37 174q-63 137 -208 137q-24 3 -46 -6q-34 -11 -81 -45v313h344v219h-535v-792h186q0 30 25 69q29 41 61 41q34 0 52 -30.5t18 -79.5v-336q0 -112 -16 -158q-15 -43 -52 -43q-38 0 -53 45 q-14 41 -14 158v59h-221z" />
<glyph unicode="6" horiz-adv-x="700" d="M66 309q0 -109 43 -188q72 -137 245 -137q174 0 246 137q43 79 43 188v307q0 115 -37 191q-62 127 -209 127q-47 0 -110 -37v268q0 87 14 125q12 39 53 39q25 0 38.5 -12t19.5 -41q10 -49 10 -205h221v94q0 139 -41 219q-73 138 -248 138t-248 -138q-40 -78 -40 -219 v-856zM287 244v456q2 22 18.5 42t48.5 20q31 0 49.5 -24.5t18.5 -43.5v-450q0 -19 -18.5 -43.5t-49.5 -24.5q-33 0 -50 24t-17 44z" />
<glyph unicode="7" horiz-adv-x="589" d="M8 1286h332l-225 -1286h229l221 1284v221h-557v-219z" />
<glyph unicode="8" horiz-adv-x="696" d="M53 322q0 -41 13 -105q18 -92 77 -154q75 -79 205 -79t205 79q60 63 78 154q12 59 12 105v176q0 87 -29.5 165.5t-85.5 131.5q50 50 76.5 123t26.5 153v127q0 100 -37 176q-72 148 -246 148q-172 0 -244 -148q-38 -78 -38 -176v-127q0 -80 26 -153t76 -123 q-56 -53 -85.5 -131.5t-29.5 -165.5v-176zM270.5 416q-1.5 129 10.5 194q9 66 67 66t70 -66q10 -72 10 -200q0 -99 -10 -164q-12 -60 -70 -60q-46 0 -61 52q-15 49 -16.5 178zM284.5 1120q1.5 118 14.5 162q12 45 49 45q43 0 55 -51q11 -64 11 -156q0 -108 -11 -172 q-12 -55 -55 -55q-44 0 -53 55q-12 54 -10.5 172z" />
<glyph unicode="9" horiz-adv-x="700" d="M57 340q0 -139 41 -217q71 -139 248 -139t248 139q41 78 41 217v856q0 108 -43 190q-74 136 -246 136t-246 -136q-43 -82 -43 -190v-293q0 -114 37 -190q62 -127 209 -127q48 0 111 37v-283q0 -81 -13 -125q-14 -39 -55 -39q-25 0 -38 12t-19 41q-10 49 -10 205h-222v-94 zM279 825v437q0 19 18 43t49 24q34 0 51 -23.5t17 -43.5v-443q-2 -22 -19 -41.5t-49 -19.5q-31 0 -49 24t-18 43z" />
<glyph unicode=":" horiz-adv-x="362" d="M74 0h215v227h-215v-227zM74 893h215v227h-215v-227z" />
<glyph unicode=";" horiz-adv-x="362" d="M74 0h71l-71 -266h102l113 266v227h-215v-227zM74 893h215v227h-215v-227z" />
<glyph unicode="&#x3c;" horiz-adv-x="1058" d="M74 649l911 -475v199l-698 356l698 356v199l-911 -475v-160z" />
<glyph unicode="=" horiz-adv-x="1058" d="M74 477h911v172h-911v-172zM74 864h911v172h-911v-172z" />
<glyph unicode="&#x3e;" horiz-adv-x="1058" d="M74 174l911 475v160l-911 475v-199l698 -356l-698 -356v-199z" />
<glyph unicode="?" horiz-adv-x="645" d="M25 1260l178 -84q18 54 43 90q41 55 88 55q40 0 59 -37q12 -30 8 -57q-9 -42 -53 -113q-64 -105 -92 -182q-45 -123 -45 -270v-256h190v256q0 51 13 108q21 88 71 172q8 13 21 35.5t18 30.5q29 50 41.5 73.5t25.5 65t13 80.5q0 98 -45 172q-68 111 -221 114 q-126 3 -217 -100q-75 -84 -96 -153zM199 0h215v227h-215v-227z" />
<glyph unicode="@" horiz-adv-x="872" d="M66 303q0 -42 18 -94.5t57 -99.5q101 -125 299 -125q214 0 320 143l-152 86q-51 -63 -168 -63q-99 0 -151 59q-39 42 -39 94v889q0 49 39 96q54 62 151 62q100 0 154 -62q37 -45 37 -96v-45q-6 12 -27 33q-38 34 -86 34q-77 0 -111 -47t-34 -123v-485q0 -172 145 -172 q28 0 51 10q43 21 62 58l20 -56h164v793q0 43 -18 99t-56 104q-103 127 -301 127q-199 0 -299 -127q-39 -48 -57 -103.5t-18 -99.5v-889zM535 573v455q0 53 47 53q23 0 36 -14t13 -39v-455q0 -53 -49 -53q-47 0 -47 53z" />
<glyph unicode="A" horiz-adv-x="765" d="M20 0h216l40 307h213l41 -307h215l-227 1505h-270zM307 541l64 475l6 39h12l6 -39l64 -475h-152z" />
<glyph unicode="B" horiz-adv-x="745" d="M82 0h272q188 9 271 135q71 109 71 291q0 114 -24 184q-48 139 -129 185q77 71 108 137q29 62 29 174q0 216 -102 311q-95 88 -302 88h-194v-1505zM303 219v463q66 0 98 -23q66 -48 66 -208q0 -161 -66 -209q-32 -23 -98 -23zM303 885v401q65 0 98 -22q66 -45 66 -179 q0 -133 -66 -178q-33 -22 -98 -22z" />
<glyph unicode="C" horiz-adv-x="708" d="M68 309q3 -97 36 -164q30 -67 86 -110q63 -51 172 -51q107 0 170 51q61 46 89 110q33 67 36 164v207h-206v-207q0 -34 -9 -55q-18 -55 -75 -55q-27 0 -43 16q-32 37 -35 94v887q4 39 10 55q21 56 68 56q34 0 51 -17q33 -36 33 -94v-207h206v207q-3 95 -36 162 q-29 67 -89 112q-69 52 -170 52q-103 0 -172 -52q-55 -42 -86 -112q-33 -67 -36 -162v-887z" />
<glyph unicode="D" horiz-adv-x="761" d="M82 0h174q156 0 243.5 35.5t131.5 120.5q40 80 52.5 215t12.5 381q0 247 -12.5 382.5t-52.5 215.5q-44 85 -131 120t-244 35h-174v-1505zM303 221v1063q63 0 94 -15t47 -65q18 -68 21 -160q2 -72 2 -290q0 -219 -2 -291q-3 -96 -21 -160q-16 -52 -47 -67t-94 -15z" />
<glyph unicode="E" horiz-adv-x="628" d="M82 0h506v227h-285v414h205v242h-205v395h285v227h-506v-1505z" />
<glyph unicode="F" horiz-adv-x="616" d="M82 0h221v655h205v228h-205v395h305v227h-526v-1505z" />
<glyph unicode="G" horiz-adv-x="737" d="M68 309v-18q0 -82 24 -146q26 -66 78 -110q57 -51 158 -51t172 88l26 -72h131v750h-309v-187h88v-272q0 -36 -8 -55q-14 -56 -66 -56q-26 0 -43 17q-30 35 -30 94v905q0 34 8 55q17 56 65 56q29 0 46 -17q28 -35 28 -94v-231h221v231q-3 95 -36 162q-29 67 -89 112 q-69 52 -170 52q-103 0 -172 -52q-55 -42 -86 -112q-33 -67 -36 -162v-887z" />
<glyph unicode="H" horiz-adv-x="778" d="M82 0h221v655h172v-655h221v1505h-221v-622h-172v622h-221v-1505z" />
<glyph unicode="I" horiz-adv-x="385" d="M82 0h221v1505h-221v-1505z" />
<glyph unicode="J" horiz-adv-x="423" d="M12 -14q20 -1 39 -1q154 0 230 81q71 77 71 213v1226h-221v-1192q0 -52 -18 -73q-29 -38 -80 -38q-10 0 -21 1v-217z" />
<glyph unicode="K" horiz-adv-x="768" d="M82 0h221v532l51 123l13 31h6l6 -31l153 -655h216l-230 1010l203 495h-215l-184 -501l-11 -25h-8v526h-221v-1505z" />
<glyph unicode="L" horiz-adv-x="604" d="M82 0h514v205h-293v1300h-221v-1505z" />
<glyph unicode="M" horiz-adv-x="991" d="M82 0h205v1010h12l8 -64l142 -946h94l141 946l8 64h13v-1010h204v1505h-270l-131 -688l-10 -80h-4l-11 80l-131 688h-270v-1505z" />
<glyph unicode="N" horiz-adv-x="808" d="M82 0h203v854h12l18 -70l215 -784h197v1505h-203v-854h-12l-18 70l-215 784h-197v-1505z" />
<glyph unicode="O" horiz-adv-x="724" d="M68 309q3 -97 36 -164q30 -67 86 -110q63 -51 172 -51q107 0 170 51q61 46 89 110q33 67 36 164v887q-3 95 -36 162q-29 67 -89 112q-69 52 -170 52q-103 0 -172 -52q-55 -42 -86 -112q-33 -67 -36 -162v-887zM289 309v887q0 34 8 55q17 56 65 56q29 0 46 -17 q28 -35 28 -94v-887q0 -36 -8 -55q-14 -55 -66 -55q-27 0 -43 16q-30 35 -30 94z" />
<glyph unicode="P" horiz-adv-x="720" d="M82 0h221v602q162 0 266 98q123 116 123 355q0 240 -123 356q-99 94 -266 94h-221v-1505zM303 827v453q99 0 135 -53q31 -46 31 -180q0 -132 -31 -173q-34 -47 -135 -47z" />
<glyph unicode="Q" horiz-adv-x="729" d="M68 309q3 -97 36 -164q30 -67 86 -110q63 -51 172 -51q55 0 111 18q72 -117 227 -117v189q-58 11 -88 53q24 56 27 66q18 65 18 116v887q-3 95 -36 162q-29 67 -89 112q-69 52 -170 52q-103 0 -172 -52q-55 -42 -86 -112q-33 -67 -36 -162v-887zM289 309v887q0 34 8 55 q17 56 65 56q29 0 46 -17q28 -35 28 -94v-887q0 -36 -8 -55q-14 -55 -66 -55q-27 0 -43 16q-30 35 -30 94z" />
<glyph unicode="R" horiz-adv-x="739" d="M82 0h221v635h59l115 -635h221l-141 729q61 41 92 132.5t31 209.5q0 217 -91 325.5t-286 108.5h-221v-1505zM303 840v446q70 0 105 -31q59 -52 59 -192q0 -139 -59 -191q-36 -32 -105 -32z" />
<glyph unicode="S" horiz-adv-x="702" d="M37 422q0 -203 55 -303q74 -135 266 -135q167 0 244 114q64 95 64 264q0 107 -66 236q-41 80 -141 229q-94 137 -119 181q-55 95 -55 161q0 147 75 150q48 0 72 -70q17 -52 17 -147l217 20q0 160 -56 267q-71 133 -246 133h-8q-143 -3 -223 -115q-65 -94 -65 -238 q0 -61 18 -120q34 -117 109 -234q74 -115 139 -207q30 -46 57 -90q58 -104 58 -166q0 -166 -91 -166q-63 0 -86 82q-18 53 -18 174z" />
<glyph unicode="T" horiz-adv-x="647" d="M4 1278h209v-1278h221v1278h209v227h-639v-227z" />
<glyph unicode="U" horiz-adv-x="749" d="M80 309q3 -95 37 -164q30 -67 86 -110q63 -51 172 -51q107 0 170 51q59 45 88 110q34 69 37 164v1196h-221v-1196q0 -34 -9 -55q-14 -55 -65 -55q-27 0 -43 16q-31 36 -31 94v1196h-221v-1196z" />
<glyph unicode="V" horiz-adv-x="716" d="M18 1505l230 -1505h221l229 1505h-215l-110 -827l-8 -64h-13l-8 64l-111 827h-215z" />
<glyph unicode="W" horiz-adv-x="1036" d="M25 1505l202 -1505h172l103 713l12 88h8l13 -88l102 -713h172l203 1505h-205l-88 -782l-4 -49h-17l-6 49l-94 782h-160l-94 -782l-6 -49h-16l-5 49l-88 782h-204z" />
<glyph unicode="X" horiz-adv-x="737" d="M16 0h217l127 449l5 18h8l4 -18l127 -449h217l-244 791l240 714h-217l-121 -381l-6 -18h-8l-7 18l-120 381h-218l240 -714z" />
<glyph unicode="Y" horiz-adv-x="700" d="M14 1505l226 -864v-641h221v641l225 864h-217l-111 -481l-6 -14h-4l-6 14l-111 481h-217z" />
<glyph unicode="Z" horiz-adv-x="626" d="M20 0h586v219h-352l352 1067v219h-536v-219h297l-347 -1048v-238z" />
<glyph unicode="[" horiz-adv-x="538" d="M82 -213h399v197h-202v1325h202v196h-399v-1718z" />
<glyph unicode="\" horiz-adv-x="792" d="M8 1692l608 -1872h168l-614 1872h-162z" />
<glyph unicode="]" horiz-adv-x="538" d="M57 -16v-197h400v1718h-400v-196h203v-1325h-203z" />
<glyph unicode="^" horiz-adv-x="1101" d="M53 809h199l299 543l299 -543h199l-381 696h-234z" />
<glyph unicode="_" horiz-adv-x="1210" d="M74 -154v-172h1063v172h-1063z" />
<glyph unicode="`" horiz-adv-x="1024" d="M293 1489l162 -184h159l-106 184h-215z" />
<glyph unicode="a" horiz-adv-x="661" d="M49 260q0 -154 64 -225q41 -51 102 -51q60 0 109 39q35 28 57 67h14q0 -66 19 -90h202q-14 86 -14 195v688q0 109 -76 182q-75 72 -176 72q-120 0 -198 -88q-80 -90 -80 -211v-47h207v53q0 21 4 53q11 59 55 59q37 0 51 -34q6 -20 6 -68v-123q-2 -5 -5 -9.5t-9 -9.5 t-11.5 -8.5t-15.5 -9t-16.5 -9t-20 -10.5t-20.5 -11q-104 -55 -162 -127q-86 -107 -86 -277zM252 291q0 84 35.5 151.5t107.5 98.5v-287q0 -29 -25 -48.5t-61 -19.5q-33 0 -47 43q-10 29 -10 62z" />
<glyph unicode="b" d="M82 0h207v74q34 -30 53 -45q61 -45 111 -45q75 0 122 75q37 61 37 144v715q0 81 -37 145q-49 74 -122 74q-31 0 -58 -15q-50 -22 -106 -75v458h-207v-1505zM289 246v628q0 25 19 46.5t42 21.5t39.5 -19.5t16.5 -48.5v-628q0 -29 -16.5 -48.5t-39.5 -19.5 q-24 0 -42.5 19.5t-18.5 48.5z" />
<glyph unicode="c" horiz-adv-x="645" d="M66 315q0 -179 75 -260q65 -71 189 -71q136 0 198 67q68 74 68 254v109h-207v-156q0 -52 -12 -71t-47 -19q-26 0 -39.5 15.5t-16 32t-2.5 42.5v604q0 26 2.5 42.5t16 32t39.5 15.5q35 0 47 -19t12 -71v-135h207v88q0 180 -68 254q-62 68 -198 68q-123 0 -189 -72 q-75 -81 -75 -260v-490z" />
<glyph unicode="d" d="M74 203q0 -85 39 -144q44 -75 120 -75q32 0 60 14q46 21 104 76v-74h207v1505h-207v-458q-34 30 -53 45q-61 45 -111 45q-75 0 -120 -74q-39 -62 -39 -145v-715zM281 246v628q0 29 16 48.5t39 19.5t42 -21.5t19 -46.5v-628q0 -29 -18.5 -48.5t-42.5 -19.5q-23 0 -39 19.5 t-16 48.5z" />
<glyph unicode="e" horiz-adv-x="659" d="M66 279q3 -78 32 -148q66 -147 234 -147q101 0 155 45q55 44 81.5 102t31.5 141v129h-192v-122q0 -34 -9 -58q-14 -55 -65 -55q-27 0 -43 16q-30 39 -33 97v243h342v326q-3 71 -33 143q-67 146 -233 146q-103 0 -154 -45q-105 -87 -114 -250v-563zM258 684v158 q3 39 10 57q18 57 66 57q29 0 45 -16q29 -36 29 -98v-158h-150z" />
<glyph unicode="f" horiz-adv-x="475" d="M20 934h105v-934h207v934h104v186h-104v29v49q0 32 6 62q14 69 59 69q15 0 43 -4q3 -1 9.5 -2t9.5 -2v178l-25 6q-21 8 -72 8q-154 0 -206 -137q-31 -81 -31 -225v-31h-105v-186z" />
<glyph unicode="g" horiz-adv-x="700" d="M12 -184q0 -117 92 -168q79 -46 240 -49q146 0 242 61q112 73 112 225q0 130 -94 197q-71 48 -192 63q-68 10 -107 23q-51 13 -51 47q0 25 29 51q6 -2 20 -2h19q96 0 151 43q106 81 115 234v317q0 15 -2 21t-2 22q-2 4 -6 27q43 24 120 24v185q-43 0 -98 -41 q-33 -23 -72 -62q-73 103 -206 103q-99 0 -150 -45q-101 -83 -113 -240v-305q2 -35 17 -92q28 -103 102 -152q-48 -25 -86 -72q-43 -53 -43 -96q0 -116 125 -149q-71 -33 -111 -70q-51 -48 -51 -100zM213 -150q0 55 76 99l106 -21q70 -11 94 -32q17 -17 17 -48 q0 -36 -53 -57q-46 -18 -105 -18q-68 0 -101.5 21t-33.5 56zM262 537v307q-1 8 -1 16q0 18 5 35q12 51 56 51q25 0 38 -16q25 -36 25 -86v-307q0 -31 -6 -52q-16 -49 -57 -49q-23 0 -37 17q-23 26 -23 73v11z" />
<glyph unicode="h" horiz-adv-x="690" d="M82 0h207v883q6 10 18 26q27 27 49 27q50 0 50 -49v-887h206v918q0 81 -37 145q-45 74 -118 74q-27 0 -54 -15q-37 -20 -90 -73q-22 -22 -24 -23v479h-207v-1505z" />
<glyph unicode="i" horiz-adv-x="370" d="M82 0h207v1120h-207v-1120zM82 1298h207v207h-207v-207z" />
<glyph unicode="j" horiz-adv-x="364" d="M-45 -182v-191q12 -4 20 -6q21 -6 70 -6q157 0 209 135q29 74 29 221v1149h-207v-1147v-47q0 -21 -4 -53q-14 -63 -60 -63q-11 0 -39 4q-3 1 -9 2t-9 2zM76 1298h207v207h-207v-207z" />
<glyph unicode="k" horiz-adv-x="641" d="M82 0h207v387l26 66l7 16h10l4 -16l102 -453h199l-188 756l149 364h-186l-101 -293l-12 -36h-10v714h-207v-1505z" />
<glyph unicode="l" horiz-adv-x="370" d="M82 0h207v1505h-207v-1505z" />
<glyph unicode="m" horiz-adv-x="1021" d="M82 0h207v883q6 10 22 26q27 27 56 27q55 0 55 -49v-887h194v883q4 8 23 26q27 27 55 27q56 0 56 -49v-887h194v918q0 81 -37 145q-45 74 -119 74q-24 0 -55 -17q-61 -36 -100 -78q-21 -21 -33 -30q-44 125 -139 125q-26 0 -53 -15q-48 -26 -95 -73q-22 -22 -24 -23v94 h-207v-1120z" />
<glyph unicode="n" horiz-adv-x="690" d="M82 0h207v883q6 10 18 26q27 27 49 27q50 0 50 -49v-887h206v918q0 81 -37 145q-45 74 -118 74q-27 0 -54 -15q-37 -20 -90 -73q-22 -22 -24 -23v94h-207v-1120z" />
<glyph unicode="o" horiz-adv-x="657" d="M63 279q3 -76 33 -148q66 -147 232 -147q101 0 155 45q54 44 80 102.5t31 140.5v576q-3 71 -33 143q-67 146 -233 146q-103 0 -154 -45q-102 -86 -111 -250v-563zM258 279v563q-1 8 -1 16q0 23 7 41q15 57 64 57q29 0 45 -16q26 -33 26 -87v-11v-563q1 -8 1 -16 q0 -24 -7 -42q-14 -55 -65 -55q-27 0 -43 16q-27 35 -27 86v11z" />
<glyph unicode="p" d="M82 -385h207v459q34 -30 53 -45q61 -45 111 -45q75 0 122 75q37 61 37 144v715q0 81 -37 145q-49 74 -122 74q-31 0 -58 -15q-50 -22 -106 -75v73h-207v-1505zM289 246v628q0 29 18.5 48.5t42.5 19.5q23 0 39.5 -19.5t16.5 -48.5v-628q0 -29 -16.5 -48.5t-39.5 -19.5 t-42 21.5t-19 46.5z" />
<glyph unicode="q" d="M74 203q0 -85 39 -144q44 -75 120 -75q32 0 60 14q46 21 104 76v-459h207v1505h-207v-73q-34 30 -53 45q-61 45 -111 45q-75 0 -120 -74q-39 -62 -39 -145v-715zM281 246v628q0 29 16 48.5t39 19.5q24 0 42.5 -19.5t18.5 -48.5v-628q0 -25 -19 -46.5t-42 -21.5t-39 19.5 t-16 48.5z" />
<glyph unicode="r" horiz-adv-x="503" d="M82 0h207v778q0 65 45 103q36 34 104 34q34 0 58 -8v230q-94 0 -158 -60q-22 -22 -34.5 -45t-14.5 -37v125h-207v-1120z" />
<glyph unicode="s" horiz-adv-x="630" d="M37 326q0 -131 49 -215q74 -127 240 -127q132 0 206 102q58 81 58 205q0 93 -62 194q-33 52 -129 148q-60 56 -90 96q-45 55 -45 105q0 56 12 86q14 45 52 45q41 0 59 -45q8 -27 8 -86h193q0 131 -41 200q-61 103 -214 103h-9q-132 -3 -201 -103q-51 -77 -51 -200 q0 -105 63 -199q35 -52 133 -146q42 -42 64 -66.5t43.5 -62t21.5 -69.5q0 -135 -71 -135q-55 0 -80 63q-17 40 -17 107h-192z" />
<glyph unicode="t" horiz-adv-x="501" d="M20 934h105v-574q0 -154 31 -237q52 -139 206 -139q50 0 80 6q5 1 15.5 4t15.5 4v203q-4 -1 -12 -2t-12 -2q-28 -4 -52 -4q-43 0 -57 67q-8 37 -8 117v557h141v186h-141v277h-207v-277h-105v-186z" />
<glyph unicode="u" horiz-adv-x="690" d="M78 203q0 -83 37 -144q44 -75 118 -75q27 0 56 16q35 19 90 74q18 18 22 20v-94h207v1120h-207v-882q-13 -22 -18 -27q-27 -27 -49 -27q-23 0 -36 10t-13 39v887h-207v-917z" />
<glyph unicode="v" horiz-adv-x="602" d="M16 1120l183 -1120h204l183 1120h-201l-68 -649l-8 -72h-16l-8 72l-68 649h-201z" />
<glyph unicode="w" horiz-adv-x="905" d="M20 1120l166 -1120h172l80 535l11 63h8l10 -63l80 -535h172l166 1120h-189l-65 -585l-8 -64h-13l-10 64l-86 585h-123l-86 -585l-10 -64h-12l-9 64l-65 585h-189z" />
<glyph unicode="x" horiz-adv-x="618" d="M16 0h201l84 283l6 30h4l6 -30l84 -283h201l-192 578l176 542h-195l-74 -262l-6 -31h-4l-6 31l-74 262h-194l176 -542z" />
<glyph unicode="y" horiz-adv-x="634" d="M25 1120l190 -1153q0 -34 -8 -61q-18 -65 -68 -103q-21 -16 -55.5 -19t-38.5 1q-10 0 -12 2v-184q50 -4 67 -4h25q114 0 197 100q74 89 90 217l198 1204h-202l-82 -688l-4 -57h-9l-4 57l-82 688h-202z" />
<glyph unicode="z" horiz-adv-x="532" d="M12 0h504v188h-285l285 764v168h-459v-188h240l-285 -764v-168z" />
<glyph unicode="{" horiz-adv-x="688" d="M61 453q73 -3 107 -62q25 -46 25 -78v-397q0 -116 24 -188t76 -113q50 -39 131.5 -54.5t206.5 -13.5v172q-72 0 -116 7.5t-71 29.5q-55 44 -55 160v397q0 76 -32 129t-95 93q63 39 95 91t32 130v397q0 116 55 160q27 22 71 29.5t116 7.5v172q-125 2 -206.5 -13.5 t-131.5 -54.5q-52 -41 -76 -113t-24 -188v-397q0 -37 -25 -80q-33 -60 -107 -60v-163z" />
<glyph unicode="|" horiz-adv-x="356" d="M82 -512h192v2204h-192v-2204z" />
<glyph unicode="}" horiz-adv-x="688" d="M57 -281v-172q126 -2 208 13.5t132 54.5q52 41 75.5 113t23.5 188v397q0 34 24 78q34 59 107 62v163q-74 0 -107 60q-24 41 -24 80v397q0 116 -23.5 188t-75.5 113q-50 39 -132 54.5t-208 13.5v-172q72 0 116 -7.5t71 -29.5q55 -44 55 -160v-397q0 -78 32 -130t95 -91 q-63 -40 -95 -93t-32 -129v-397q0 -116 -55 -160q-27 -22 -71 -29.5t-116 -7.5z" />
<glyph unicode="~" horiz-adv-x="1280" d="M113 1352l135 -58q14 40 47 90q64 91 154 91q70 0 178 -74q54 -34 83 -50.5t82 -33.5t107 -17q82 0 145 48q119 94 181 262l-135 57q-20 -50 -48 -92q-59 -90 -143 -90q-74 0 -174 71q-6 4 -29 18t-31 19t-29.5 17t-33 16.5t-32.5 12.5t-38 11t-39 6t-44 3 q-89 0 -154 -47q-128 -100 -182 -260z" />
<glyph unicode="&#xa2;" horiz-adv-x="636" d="M66 508q0 -300 208 -330v-301h123v303q97 14 144 88.5t47 229.5v108h-189v-155q0 -49 -18 -70t-55 -21q-38 0 -55 27t-17 64v604q0 36 17 63t55 27q37 0 55 -20.5t18 -69.5v-135h189v88q0 155 -47 229q-48 71 -144 86v244h-123v-242q-208 -30 -208 -328v-489z" />
<glyph unicode="&#xa3;" horiz-adv-x="817" d="M4 63l146 -79q10 30 28 51q37 51 86 51q8 0 16.5 -1.5t18.5 -4.5t17 -6t19.5 -9t18 -9t20 -10.5t19.5 -10.5q96 -51 144 -51q102 0 170.5 99t80.5 282l-188 22q-3 -101 -29 -145q-23 -42 -53 -45q-39 3 -63 22q-38 23 -70 37q57 117 57 219q0 72 -24 174h174v137h-211 l-6 25q-24 78 -35.5 119t-23 104.5t-11.5 114.5q0 70 21 113q23 55 69 55q66 0 92 -60q23 -53 23 -137h213q0 177 -66 279q-83 126 -266 123q-152 -3 -231 -123q-64 -98 -64 -250q0 -84 78 -342l6 -21h-147v-137h188q31 -108 31 -174q0 -98 -37 -199q-49 -8 -92 -45 q-73 -67 -119 -168z" />
<glyph unicode="&#xa5;" horiz-adv-x="720" d="M25 1505l196 -753h-147v-138h176v-137h-176v-137h176v-340h221v340h176v137h-176v137h176v138h-147l196 753h-217l-110 -481l-7 -14h-4l-6 14l-110 481h-217z" />
<glyph unicode="&#xa8;" horiz-adv-x="1024" d="M272 1305h191v200h-191v-200zM561 1305h191v200h-191v-200z" />
<glyph unicode="&#xa9;" horiz-adv-x="1644" d="M53 752q0 -155 60 -296t166 -247t246 -165.5t296 -59.5q157 0 298 59.5t247 165.5t165.5 246.5t59.5 296.5q0 157 -59.5 297.5t-165.5 246.5t-247 166t-298 60q-155 0 -295.5 -60t-246.5 -166q-107 -107 -166.5 -247t-59.5 -297zM172 752q0 131 51 250t142 210t208 141 t248 50q132 0 251 -50t210 -141t141 -209.5t50 -250.5q0 -131 -50 -248.5t-141 -208.5t-210.5 -142t-250.5 -51t-248 51t-208 142t-142 208.5t-51 248.5zM627 487q0 -52 22 -98q50 -98 170 -98q70 0 109 31q71 60 80 165v125h-138v-125q3 -16 -4 -32q-12 -31 -45 -31 q-18 0 -28 10q-21 18 -21 53v531q0 16 6 31q12 32 43 32q21 0 31 -10q21 -21 18 -53v-125h138v125q-3 52 -25 98q-50 98 -164 98q-71 0 -112 -30q-80 -64 -80 -166v-531z" />
<glyph unicode="&#xad;" horiz-adv-x="444" d="M74 455h297v194h-297v-194z" />
<glyph unicode="&#xae;" horiz-adv-x="1644" d="M53 752q0 -155 60 -296t166 -247t246 -165.5t296 -59.5q157 0 298 59.5t247 165.5t165.5 246.5t59.5 296.5q0 157 -59.5 297.5t-165.5 246.5t-247 166t-298 60q-155 0 -295.5 -60t-246.5 -166q-107 -107 -166.5 -247t-59.5 -297zM172 752q0 131 51 250t142 210t208 141 t248 50q132 0 251 -50t210 -141t141 -209.5t50 -250.5q0 -131 -50 -248.5t-141 -208.5t-210.5 -142t-250.5 -51t-248 51t-208 142t-142 208.5t-51 248.5zM625 313h145v365h55l95 -365h151l-106 400q56 47 72 95t16 126q0 258 -232 258h-196v-879zM770 805v258h45 q63 0 84 -43q14 -29 14 -88q0 -57 -14 -86q-20 -41 -84 -41h-45z" />
<glyph unicode="&#xb4;" horiz-adv-x="1024" d="M410 1305h159l162 184h-215z" />
<glyph unicode="&#xb8;" horiz-adv-x="1024" d="M426 -111v-141h63l-40 -133h104l45 133v141h-172z" />
<glyph unicode="&#xc0;" horiz-adv-x="765" d="M20 0h216l40 307h213l41 -307h215l-227 1505h-270zM141 1823l162 -185h160l-107 185h-215zM307 541l64 475l6 39h12l6 -39l64 -475h-152z" />
<glyph unicode="&#xc1;" horiz-adv-x="765" d="M20 0h216l40 307h213l41 -307h215l-227 1505h-270zM293 1638h160l161 185h-215zM307 541l64 475l6 39h12l6 -39l64 -475h-152z" />
<glyph unicode="&#xc4;" horiz-adv-x="765" d="M20 0h216l40 307h213l41 -307h215l-227 1505h-270zM143 1638h191v201h-191v-201zM307 541l64 475l6 39h12l6 -39l64 -475h-152zM432 1638h191v201h-191v-201z" />
<glyph unicode="&#xc5;" horiz-adv-x="765" d="M20 0h216l40 307h213l41 -307h215l-227 1505h-270zM231 1761q0 -62 45 -102.5t109 -40.5t108 40.5t44 102.5t-44 103t-108 41t-109 -41t-45 -103zM307 541l64 475l6 39h12l6 -39l64 -475h-152zM309 1761q0 29 23 50.5t53 21.5t53 -21.5t23 -50.5t-23 -50t-53 -21t-53 21 t-23 50z" />
<glyph unicode="&#xc9;" horiz-adv-x="628" d="M82 0h506v227h-285v414h205v242h-205v395h285v227h-506v-1505zM236 1638h159l162 185h-215z" />
<glyph unicode="&#xcb;" horiz-adv-x="628" d="M82 0h506v227h-285v414h205v242h-205v395h285v227h-506v-1505zM94 1638h191v201h-191v-201zM383 1638h190v201h-190v-201z" />
<glyph unicode="&#xd6;" horiz-adv-x="724" d="M68 309q3 -97 36 -164q30 -67 86 -110q63 -51 172 -51q107 0 170 51q61 46 89 110q33 67 36 164v887q-3 95 -36 162q-29 67 -89 112q-69 52 -170 52q-103 0 -172 -52q-55 -42 -86 -112q-33 -67 -36 -162v-887zM123 1638h190v201h-190v-201zM289 309v887q0 34 8 55 q17 56 65 56q29 0 46 -17q28 -35 28 -94v-887q0 -36 -8 -55q-14 -55 -66 -55q-27 0 -43 16q-30 35 -30 94zM412 1638h190v201h-190v-201z" />
<glyph unicode="&#xdc;" horiz-adv-x="749" d="M80 309q3 -95 37 -164q30 -67 86 -110q63 -51 172 -51q107 0 170 51q59 45 88 110q34 69 37 164v1196h-221v-1196q0 -34 -9 -55q-14 -55 -65 -55q-27 0 -43 16q-31 36 -31 94v1196h-221v-1196zM135 1638h191v201h-191v-201zM424 1638h190v201h-190v-201z" />
<glyph unicode="&#xe0;" horiz-adv-x="681" d="M49 260q0 -154 64 -225q41 -51 102 -51q60 0 109 39q35 28 57 67h14q0 -66 19 -90h202q-14 86 -14 195v688q0 109 -76 182q-75 72 -176 72q-120 0 -198 -88q-80 -90 -80 -211v-47h207v53q0 21 4 53q11 59 55 59q37 0 51 -34q6 -20 6 -68v-123q-2 -5 -5 -9.5t-9 -9.5 t-11.5 -8.5t-15.5 -9t-16.5 -9t-20 -10.5t-20.5 -11q-104 -55 -162 -127q-86 -107 -86 -277zM102 1489l162 -184h160l-107 184h-215zM252 291q0 84 35.5 151.5t107.5 98.5v-287q0 -29 -25 -48.5t-61 -19.5q-33 0 -47 43q-10 29 -10 62z" />
<glyph unicode="&#xe1;" horiz-adv-x="681" d="M49 260q0 -154 64 -225q41 -51 102 -51q60 0 109 39q35 28 57 67h14q0 -66 19 -90h202q-14 86 -14 195v688q0 109 -76 182q-75 72 -176 72q-120 0 -198 -88q-80 -90 -80 -211v-47h207v53q0 21 4 53q11 59 55 59q37 0 51 -34q6 -20 6 -68v-123q-2 -5 -5 -9.5t-9 -9.5 t-11.5 -8.5t-15.5 -9t-16.5 -9t-20 -10.5t-20.5 -11q-104 -55 -162 -127q-86 -107 -86 -277zM252 291q0 84 35.5 151.5t107.5 98.5v-287q0 -29 -25 -48.5t-61 -19.5q-33 0 -47 43q-10 29 -10 62zM264 1305h160l162 184h-215z" />
<glyph unicode="&#xe4;" horiz-adv-x="681" d="M49 260q0 -154 64 -225q41 -51 102 -51q60 0 109 39q35 28 57 67h14q0 -66 19 -90h202q-14 86 -14 195v688q0 109 -76 182q-75 72 -176 72q-120 0 -198 -88q-80 -90 -80 -211v-47h207v53q0 21 4 53q11 59 55 59q37 0 51 -34q6 -20 6 -68v-123q-2 -5 -5 -9.5t-9 -9.5 t-11.5 -8.5t-15.5 -9t-16.5 -9t-20 -10.5t-20.5 -11q-104 -55 -162 -127q-86 -107 -86 -277zM102 1305h191v200h-191v-200zM252 291q0 84 35.5 151.5t107.5 98.5v-287q0 -29 -25 -48.5t-61 -19.5q-33 0 -47 43q-10 29 -10 62zM391 1305h191v200h-191v-200z" />
<glyph unicode="&#xe5;" horiz-adv-x="681" d="M49 260q0 -154 64 -225q41 -51 102 -51q60 0 109 39q35 28 57 67h14q0 -66 19 -90h202q-14 86 -14 195v688q0 109 -76 182q-75 72 -176 72q-120 0 -198 -88q-80 -90 -80 -211v-47h207v53q0 21 4 53q11 59 55 59q37 0 51 -34q6 -20 6 -68v-123q-2 -5 -5 -9.5t-9 -9.5 t-11.5 -8.5t-15.5 -9t-16.5 -9t-20 -10.5t-20.5 -11q-104 -55 -162 -127q-86 -107 -86 -277zM188 1421q0 -62 45 -102.5t109 -40.5t108 40.5t44 102.5t-44 103t-108 41t-109 -41t-45 -103zM252 291q0 84 35.5 151.5t107.5 98.5v-287q0 -29 -25 -48.5t-61 -19.5q-33 0 -47 43 q-10 29 -10 62zM266 1421q0 29 23 50.5t53 21.5t53 -21.5t23 -50.5t-23 -50t-53 -21t-53 21t-23 50z" />
<glyph unicode="&#xe9;" horiz-adv-x="659" d="M66 279q3 -78 32 -148q66 -147 234 -147q101 0 155 45q55 44 81.5 102t31.5 141v129h-192v-122q0 -34 -9 -58q-14 -55 -65 -55q-27 0 -43 16q-30 39 -33 97v243h342v326q-3 71 -33 143q-67 146 -233 146q-103 0 -154 -45q-105 -87 -114 -250v-563zM258 684v158 q3 39 10 57q18 57 66 57q29 0 45 -16q29 -36 29 -98v-158h-150zM264 1305h160l162 184h-215z" />
<glyph unicode="&#xeb;" horiz-adv-x="659" d="M66 279q3 -78 32 -148q66 -147 234 -147q101 0 155 45q55 44 81.5 102t31.5 141v129h-192v-122q0 -34 -9 -58q-14 -55 -65 -55q-27 0 -43 16q-30 39 -33 97v243h342v326q-3 71 -33 143q-67 146 -233 146q-103 0 -154 -45q-105 -87 -114 -250v-563zM90 1305h191v200h-191 v-200zM258 684v158q3 39 10 57q18 57 66 57q29 0 45 -16q29 -36 29 -98v-158h-150zM379 1305h190v200h-190v-200z" />
<glyph unicode="&#xf6;" horiz-adv-x="657" d="M63 279q3 -76 33 -148q66 -147 232 -147q101 0 155 45q54 44 80 102.5t31 140.5v576q-3 71 -33 143q-67 146 -233 146q-103 0 -154 -45q-102 -86 -111 -250v-563zM90 1305h191v200h-191v-200zM258 279v563q-3 33 6 57q15 57 64 57q29 0 45 -16q29 -36 26 -98v-563 q3 -34 -6 -58q-14 -55 -65 -55q-27 0 -43 16q-30 38 -27 97zM379 1305h190v200h-190v-200z" />
<glyph unicode="&#xfc;" horiz-adv-x="690" d="M78 203q0 -83 37 -144q44 -75 118 -75q27 0 56 16q35 19 90 74q18 18 22 20v-94h207v1120h-207v-882q-13 -22 -18 -27q-27 -27 -49 -27q-23 0 -36 10t-13 39v887h-207v-917zM106 1305h191v200h-191v-200zM395 1305h191v200h-191v-200z" />
<glyph unicode="&#x2c6;" horiz-adv-x="1021" d="M260 1305h189l61 71l63 -71h189l-141 184h-220z" />
<glyph unicode="&#x2da;" horiz-adv-x="1021" d="M358 1421q0 -62 45 -102.5t109 -40.5t108 40.5t44 102.5t-44 103t-108 41t-109 -41t-45 -103zM436 1421q0 29 23 50.5t53 21.5t53 -21.5t23 -50.5t-23 -50t-53 -21t-53 21t-23 50z" />
<glyph unicode="&#x2dc;" horiz-adv-x="1024" d="M313 1305q6 3 17.5 8.5t15.5 7.5q46 16 76 16q51 -3 92 -20q43 -19 88 -19q20 0 41 7q44 11 68 32v152q-6 -3 -17.5 -8.5t-15.5 -7.5q-49 -17 -76 -17q-41 3 -90 23q-46 16 -90 16q-23 0 -41 -6q-43 -14 -68 -33v-151z" />
<glyph unicode="&#x2000;" horiz-adv-x="952" />
<glyph unicode="&#x2001;" horiz-adv-x="1905" />
<glyph unicode="&#x2002;" horiz-adv-x="952" />
<glyph unicode="&#x2003;" horiz-adv-x="1905" />
<glyph unicode="&#x2004;" horiz-adv-x="635" />
<glyph unicode="&#x2005;" horiz-adv-x="476" />
<glyph unicode="&#x2006;" horiz-adv-x="317" />
<glyph unicode="&#x2007;" horiz-adv-x="317" />
<glyph unicode="&#x2008;" horiz-adv-x="238" />
<glyph unicode="&#x2009;" horiz-adv-x="381" />
<glyph unicode="&#x200a;" horiz-adv-x="105" />
<glyph unicode="&#x2010;" horiz-adv-x="444" d="M74 455h297v194h-297v-194z" />
<glyph unicode="&#x2011;" horiz-adv-x="444" d="M74 455h297v194h-297v-194z" />
<glyph unicode="&#x2012;" horiz-adv-x="444" d="M74 455h297v194h-297v-194z" />
<glyph unicode="&#x2013;" horiz-adv-x="806" d="M74 649h659v195h-659v-195z" />
<glyph unicode="&#x2014;" horiz-adv-x="972" d="M74 649h825v195h-825v-195z" />
<glyph unicode="&#x2018;" horiz-adv-x="309" d="M49 1012h215v227h-71l71 266h-102l-113 -266v-227z" />
<glyph unicode="&#x2019;" horiz-adv-x="309" d="M45 1012h102l113 266v227h-215v-227h72z" />
<glyph unicode="&#x201a;" horiz-adv-x="309" d="M45 0h72l-72 -266h102l113 266v227h-215v-227z" />
<glyph unicode="&#x201c;" horiz-adv-x="624" d="M53 1012h215v227h-71l71 266h-102l-113 -266v-227zM356 1012h215v227h-71l71 266h-102l-113 -266v-227z" />
<glyph unicode="&#x201d;" horiz-adv-x="624" d="M53 1012h103l112 266v227h-215v-227h72zM356 1012h103l112 266v227h-215v-227h72z" />
<glyph unicode="&#x201e;" horiz-adv-x="624" d="M53 0h72l-72 -266h103l112 266v227h-215v-227zM356 0h72l-72 -266h103l112 266v227h-215v-227z" />
<glyph unicode="&#x2022;" horiz-adv-x="663" d="M82 817q0 -104 74 -178t178 -74q102 0 176 74q72 72 72 178q0 104 -72 176t-176 72q-106 0 -178 -72q-74 -74 -74 -176z" />
<glyph unicode="&#x2026;" horiz-adv-x="964" d="M53 0h215v227h-215v-227zM375 0h215v227h-215v-227zM696 0h215v227h-215v-227z" />
<glyph unicode="&#x202f;" horiz-adv-x="381" />
<glyph unicode="&#x205f;" horiz-adv-x="476" />
<glyph unicode="&#x20ac;" horiz-adv-x="813" d="M53 547h107v-238q3 -95 37 -164q30 -67 86 -110q63 -51 172 -51q107 0 170 51q59 45 88 110q34 69 37 164v84h-207v-84q0 -36 -8 -55q-18 -55 -76 -55q-27 0 -43 16q-32 37 -35 94v238h233v137h-233v137h233v137h-233v238q4 39 10 55q21 56 68 56q34 0 51 -17 q33 -36 33 -94v-84h207v84q-3 93 -37 162q-30 68 -88 112q-69 52 -170 52q-103 0 -172 -52q-55 -42 -86 -112q-34 -69 -37 -162v-238h-107v-137h107v-137h-107v-137z" />
<glyph unicode="&#x2122;" horiz-adv-x="937" d="M74 1401h104v-580h113v580h104v104h-321v-104zM440 821h103v449l80 -449h51l78 449v-449h104v684h-137l-68 -319h-6l-67 319h-138v-684z" />
<glyph unicode="&#x25fc;" horiz-adv-x="1116" d="M0 0v1116h1116v-1116h-1116z" />
<hkern u1="&#x2d;" u2="&#x37;" k="41" />
<hkern u1="&#x33;" u2="&#x37;" k="4" />
<hkern u1="&#x34;" u2="&#x39;" k="-4" />
<hkern u1="&#x34;" u2="&#x38;" k="-16" />
<hkern u1="&#x34;" u2="&#x33;" k="-10" />
<hkern u1="&#x37;" u2="&#x34;" k="25" />
<hkern u1="&#x37;" u2="&#x31;" k="-10" />
<hkern u1="&#x38;" u2="&#x32;" k="8" />
<hkern u1="A" u2="T" k="45" />
<hkern u1="B" u2="Y" k="20" />
<hkern u1="F" u2="&#xf6;" k="20" />
<hkern u1="F" u2="&#xeb;" k="20" />
<hkern u1="F" u2="&#xe9;" k="20" />
<hkern u1="F" u2="&#xe5;" k="20" />
<hkern u1="F" u2="&#xe4;" k="20" />
<hkern u1="F" u2="&#xe1;" k="20" />
<hkern u1="F" u2="&#xe0;" k="20" />
<hkern u1="F" u2="o" k="20" />
<hkern u1="F" u2="e" k="20" />
<hkern u1="F" u2="c" k="20" />
<hkern u1="F" u2="a" k="20" />
<hkern u1="I" u2="t" k="8" />
<hkern u1="L" u2="&#xc5;" k="-20" />
<hkern u1="L" u2="&#xc4;" k="-20" />
<hkern u1="L" u2="&#xc1;" k="-20" />
<hkern u1="L" u2="&#xc0;" k="-20" />
<hkern u1="L" u2="Y" k="41" />
<hkern u1="L" u2="A" k="-20" />
<hkern u1="O" u2="T" k="20" />
<hkern u1="P" u2="&#xf6;" k="25" />
<hkern u1="P" u2="&#xeb;" k="25" />
<hkern u1="P" u2="&#xe9;" k="25" />
<hkern u1="P" u2="o" k="25" />
<hkern u1="P" u2="e" k="25" />
<hkern u1="P" u2="c" k="25" />
<hkern u1="T" u2="&#xf6;" k="57" />
<hkern u1="T" u2="&#xeb;" k="57" />
<hkern u1="T" u2="&#xe9;" k="57" />
<hkern u1="T" u2="&#xe5;" k="66" />
<hkern u1="T" u2="&#xe4;" k="66" />
<hkern u1="T" u2="&#xe1;" k="66" />
<hkern u1="T" u2="&#xe0;" k="66" />
<hkern u1="T" u2="&#xc5;" k="45" />
<hkern u1="T" u2="&#xc4;" k="45" />
<hkern u1="T" u2="&#xc1;" k="45" />
<hkern u1="T" u2="&#xc0;" k="45" />
<hkern u1="T" u2="y" k="10" />
<hkern u1="T" u2="x" k="41" />
<hkern u1="T" u2="w" k="10" />
<hkern u1="T" u2="v" k="10" />
<hkern u1="T" u2="r" k="53" />
<hkern u1="T" u2="p" k="53" />
<hkern u1="T" u2="o" k="57" />
<hkern u1="T" u2="n" k="53" />
<hkern u1="T" u2="m" k="53" />
<hkern u1="T" u2="e" k="57" />
<hkern u1="T" u2="c" k="57" />
<hkern u1="T" u2="a" k="66" />
<hkern u1="T" u2="T" k="-16" />
<hkern u1="T" u2="A" k="45" />
<hkern u1="a" u2="t" k="14" />
<hkern u1="a" u2="f" k="10" />
<hkern u1="b" u2="t" k="12" />
<hkern u1="c" u2="t" k="10" />
<hkern u1="c" u2="f" k="10" />
<hkern u1="e" u2="t" k="10" />
<hkern u1="e" u2="f" k="10" />
<hkern u1="f" u2="&#xe5;" k="4" />
<hkern u1="f" u2="&#xe4;" k="4" />
<hkern u1="f" u2="&#xe1;" k="4" />
<hkern u1="f" u2="&#xe0;" k="4" />
<hkern u1="f" u2="f" k="12" />
<hkern u1="f" u2="a" k="4" />
<hkern u1="g" u2="&#x201a;" k="-20" />
<hkern u1="g" u2="&#xf6;" k="10" />
<hkern u1="g" u2="&#xeb;" k="10" />
<hkern u1="g" u2="&#xe9;" k="10" />
<hkern u1="g" u2="s" k="8" />
<hkern u1="g" u2="o" k="10" />
<hkern u1="g" u2="e" k="10" />
<hkern u1="g" u2="c" k="10" />
<hkern u1="g" u2="&#x2c;" k="-20" />
<hkern u1="h" u2="t" k="12" />
<hkern u1="i" u2="t" k="8" />
<hkern u1="k" u2="&#xf6;" k="10" />
<hkern u1="k" u2="&#xeb;" k="10" />
<hkern u1="k" u2="&#xe9;" k="10" />
<hkern u1="k" u2="o" k="10" />
<hkern u1="k" u2="e" k="10" />
<hkern u1="k" u2="c" k="10" />
<hkern u1="l" u2="t" k="8" />
<hkern u1="m" u2="t" k="12" />
<hkern u1="n" u2="t" k="12" />
<hkern u1="o" u2="t" k="10" />
<hkern u1="o" u2="f" k="10" />
<hkern u1="p" u2="t" k="12" />
<hkern u1="r" u2="&#xf6;" k="8" />
<hkern u1="r" u2="&#xeb;" k="8" />
<hkern u1="r" u2="&#xe9;" k="8" />
<hkern u1="r" u2="&#xe5;" k="16" />
<hkern u1="r" u2="&#xe4;" k="16" />
<hkern u1="r" u2="&#xe1;" k="16" />
<hkern u1="r" u2="&#xe0;" k="16" />
<hkern u1="r" u2="s" k="10" />
<hkern u1="r" u2="o" k="8" />
<hkern u1="r" u2="e" k="8" />
<hkern u1="r" u2="c" k="8" />
<hkern u1="r" u2="a" k="16" />
<hkern u1="s" u2="t" k="18" />
<hkern u1="t" u2="&#xe5;" k="4" />
<hkern u1="t" u2="&#xe4;" k="4" />
<hkern u1="t" u2="&#xe1;" k="4" />
<hkern u1="t" u2="&#xe0;" k="4" />
<hkern u1="t" u2="z" k="-12" />
<hkern u1="t" u2="t" k="12" />
<hkern u1="t" u2="a" k="4" />
<hkern u1="u" u2="t" k="10" />
<hkern u1="&#x7c;" u2="t" k="8" />
<hkern u1="&#xc0;" u2="T" k="45" />
<hkern u1="&#xc1;" u2="T" k="45" />
<hkern u1="&#xc4;" u2="T" k="45" />
<hkern u1="&#xc5;" u2="T" k="45" />
<hkern u1="&#xd6;" u2="T" k="20" />
<hkern u1="&#xe0;" u2="t" k="14" />
<hkern u1="&#xe0;" u2="f" k="10" />
<hkern u1="&#xe1;" u2="t" k="14" />
<hkern u1="&#xe1;" u2="f" k="10" />
<hkern u1="&#xe4;" u2="t" k="14" />
<hkern u1="&#xe4;" u2="f" k="10" />
<hkern u1="&#xe5;" u2="t" k="14" />
<hkern u1="&#xe5;" u2="f" k="10" />
<hkern u1="&#xe9;" u2="t" k="10" />
<hkern u1="&#xe9;" u2="f" k="10" />
<hkern u1="&#xeb;" u2="t" k="10" />
<hkern u1="&#xeb;" u2="f" k="10" />
<hkern u1="&#xf6;" u2="t" k="10" />
<hkern u1="&#xf6;" u2="f" k="10" />
<hkern u1="&#xfc;" u2="t" k="10" />
<hkern g1="E,Eacute,Edieresis" 	g2="A,Agrave,Aacute,Adieresis,Aring" 	k="-4" />
<hkern g1="c,e,o,eacute,edieresis,odieresis" 	g2="v,w,y" 	k="10" />
<hkern g1="c,e,o,eacute,edieresis,odieresis" 	g2="s" 	k="8" />
<hkern g1="c,e,o,eacute,edieresis,odieresis" 	g2="m,n,p,r" 	k="4" />
<hkern g1="c,e,o,eacute,edieresis,odieresis" 	g2="I,i,l,bar" 	k="4" />
<hkern g1="c,e,o,eacute,edieresis,odieresis" 	g2="a,agrave,aacute,adieresis,aring" 	k="10" />
<hkern g1="I,i,l,bar" 	g2="s" 	k="10" />
<hkern g1="I,i,l,bar" 	g2="c,e,o,eacute,edieresis,odieresis" 	k="4" />
<hkern g1="b,h,m,n,p" 	g2="s" 	k="10" />
<hkern g1="b,h,m,n,p" 	g2="a,agrave,aacute,adieresis,aring" 	k="12" />
<hkern g1="Y" 	g2="A,Agrave,Aacute,Adieresis,Aring" 	k="51" />
<hkern g1="Y" 	g2="a,agrave,aacute,adieresis,aring" 	k="86" />
<hkern g1="Y" 	g2="c,e,o,eacute,edieresis,odieresis" 	k="82" />
<hkern g1="Y" 	g2="d,q" 	k="51" />
<hkern g1="u,udieresis" 	g2="v,w,y" 	k="10" />
<hkern g1="u,udieresis" 	g2="s" 	k="8" />
<hkern g1="u,udieresis" 	g2="c,e,o,eacute,edieresis,odieresis" 	k="8" />
<hkern g1="a,agrave,aacute,adieresis,aring" 	g2="v,w,y" 	k="8" />
<hkern g1="a,agrave,aacute,adieresis,aring" 	g2="s" 	k="8" />
<hkern g1="a,agrave,aacute,adieresis,aring" 	g2="m,n,p,r" 	k="6" />
<hkern g1="a,agrave,aacute,adieresis,aring" 	g2="I,i,l,bar" 	k="6" />
<hkern g1="v,w,y" 	g2="a,agrave,aacute,adieresis,aring" 	k="14" />
<hkern g1="v,w,y" 	g2="c,e,o,eacute,edieresis,odieresis" 	k="6" />
<hkern g1="v,w,y" 	g2="quotesingle,quoteleft,quoteright,quotedblleft,quotedblright" 	k="-25" />
</font>
</defs></svg> 